{
  "name": "Runes Shop",
  "sellExchangeMultiplier": 1.0,
  "sections": [ { "items": [
    { "id": "ItemId.FIRE_RUNE", "price": 10 },
    { "id": "ItemId.WATER_RUNE", "price": 10 },
    { "id": "ItemId.AIR_RUNE", "price": 10 },
    { "id": "ItemId.EARTH_RUNE", "price": 10 },
    { "id": "ItemId.MIND_RUNE", "price": 10 },
    { "id": "ItemId.CHAOS_RUNE", "price": 100 },
    { "id": "ItemId.NATURE_RUNE", "price": 250 },
    { "id": "ItemId.LAW_RUNE", "price": 250 },
    { "id": "ItemId.COSMIC_RUNE", "price": 250 }
  ] } ]
}
