{
  "name": "Creepy Crawly Rewards",
  "variableCurrency": "creepy crawly points",
  "sections": [ { "items": [
    { "id": "ItemId.BARROWS_AMULET_60038", "price": 250 },
    { "id": "ItemId.BLOOD_SHARD", "price": 12500 },
    { "id": "ItemId.ECTOPLASMATOR", "price": 800 },
    { "id": "ItemId.SOUL_CAPE", "price": 6000 },
    { "id": "ItemId.VOID_MELEE_HELM", "price": 600 },
    { "id": "ItemId.VOID_RANGER_HELM", "price": 600 },
    { "id": "ItemId.VOID_MAGE_HELM", "price": 600 },
    { "id": "ItemId.VOID_KNIGHT_TOP", "price": 800 },
    { "id": "ItemId.VOID_KNIGHT_ROBE", "price": 800 },
    { "id": "ItemId.VOID_KNIGHT_GLOVES", "price": 400 },
    { "id": "ItemId.HEALER_HAT", "price": 800 },
    { "id": "ItemId.FIGHTER_HAT", "price": 800 },
    { "id": "ItemId.RUNNER_HAT", "price": 800 },
    { "id": "ItemId.RANGER_HAT", "price": 800 },
    { "id": "ItemId.FIGHTER_TORSO", "price": 800 },
    { "id": "ItemId.PENANCE_SKIRT", "price": 800 },
    { "id": "ItemId.SARADOMIN_HALO", "price": 3000 },
    { "id": "ItemId.ZAMORAK_HALO", "price": 3000 },
    { "id": "ItemId.GUTHIX_HALO", "price": 3000 },
    { "id": "ItemId.DECORATIVE_ARMOUR_11898", "price": 800 },
    { "id": "ItemId.DECORATIVE_ARMOUR_11896", "price": 1500 },
    { "id": "ItemId.DECORATIVE_ARMOUR_11897", "price": 1000 },
    { "id": "ItemId.DECORATIVE_ARMOUR_11899", "price": 1500 },
    { "id": "ItemId.DECORATIVE_ARMOUR_11900", "price": 1000 },
    { "id": "ItemId.DECORATIVE_ARMOUR_11901", "price": 1500 },
    { "id": "ItemId.DECORATIVE_HELM", "price": 150 },
    { "id": "ItemId.DECORATIVE_ARMOUR", "price": 300 },
    { "id": "ItemId.DECORATIVE_ARMOUR_4070", "price": 200 },
    { "id": "ItemId.DECORATIVE_ARMOUR_11893", "price": 200 },
    { "id": "ItemId.DECORATIVE_SHIELD", "price": 200 },
    { "id": "ItemId.DECORATIVE_HELM_4506", "price": 1500 },
    { "id": "ItemId.DECORATIVE_ARMOUR_4504", "price": 3000 },
    { "id": "ItemId.DECORATIVE_ARMOUR_4505", "price": 2000 },
    { "id": "ItemId.DECORATIVE_ARMOUR_11894", "price": 2000 },
    { "id": "ItemId.DECORATIVE_SHIELD_4507", "price": 2000 },
    { "id": "ItemId.DECORATIVE_HELM_4511", "price": 8000 },
    { "id": "ItemId.DECORATIVE_ARMOUR_4509", "price": 15000 },
    { "id": "ItemId.DECORATIVE_ARMOUR_4510", "price": 10000 },
    { "id": "ItemId.DECORATIVE_ARMOUR_11895", "price": 10000 },
    { "id": "ItemId.DECORATIVE_SHIELD_4512", "price": 10000 },
    { "id": "ItemId.BEARHEAD", "price": 3000 },
    { "id": "ItemId.DWARVEN_HELMET", "price": 1500 }
  ] } ]
}
